Poll Predictions and Errors
================

This data combines three state-level datasets on the 2016 Presidential Election.

Output
======

The final dataset (`pres16_state.csv`) is a spreadsheet of the 50 states and DC.

``` r
read_csv("data/output/pres16_state.csv")
```

    ## # A tibble: 51 x 33
    ##                   state    st color      vap      vep votes_hrc votes_djt
    ##                   <chr> <chr> <chr>    <int>    <int>     <int>     <int>
    ##  1              Alabama    AL     R  3770142  3601361    729547   1318255
    ##  2               Alaska    AK     R   555367   519849    116454    163387
    ##  3              Arizona    AZ swing  5331034  4734313   1161167   1252401
    ##  4             Arkansas    AR     R  2286625  2142571    380494    684872
    ##  5           California    CA     D 30201571 25017408   8753788   4483810
    ##  6             Colorado    CO swing  4305728  3966297   1338870   1202484
    ##  7          Connecticut    CT     D  2821935  2561555    897572    673215
    ##  8             Delaware    DE     D   749872   689125    235603    185127
    ##  9 District of Columbia    DC     D   562329   511463    282830     12723
    ## 10              Florida    FL swing 16565588 14572210   4504975   4617886
    ## # ... with 41 more rows, and 26 more variables: tot_votes <int>,
    ## #   pct_hrc_vep <dbl>, pct_hrc_voters <dbl>, pct_djt_vep <dbl>,
    ## #   pct_djt_voters <dbl>, cces_n_voters <dbl>, cces_n_raw <int>,
    ## #   cces_tothrc_adj_trn <dbl>, cces_tothrc_raw <int>,
    ## #   cces_pct_hrc_voters <dbl>, cces_pct_hrc_vep <dbl>,
    ## #   cces_pct_hrc_raw <dbl>, cces_totdjt_adj_trn <dbl>,
    ## #   cces_totdjt_raw <int>, cces_pct_djt_voters <dbl>,
    ## #   cces_pct_djt_vep <dbl>, cces_pct_djt_raw <dbl>, cv_turnout_wgt <dbl>,
    ## #   yougov_pct_hrc <dbl>, yougov_pct_djt <dbl>, yougov_n <dbl>, `State
…
